counter_sim.vcd
$date
	Mon Jul 21 15:47:12 2025
$end
$version
	Icarus Verilog
$end
$timescale
	1ps
$end
$scope module tb_step_counter_limit $end
$var wire 1 ! done $end
$var wire 8 " data_out [7:0] $end
$var reg 1 # A $end
$var reg 1 $ B $end
$var reg 16 % addr [15:0] $end
$var reg 1 & clk $end
$var reg 1 ' cs $end
$var reg 16 ( limit_in [15:0] $end
$var reg 1 ) load_limit $end
$var reg 1 * rd $end
$var reg 1 + rst_n $end
$scope module uut $end
$var wire 1 # A $end
$var wire 1 $ B $end
$var wire 16 , addr [15:0] $end
$var wire 1 & clk $end
$var wire 1 ' cs $end
$var wire 16 - limit_in [15:0] $end
$var wire 1 ) load_limit $end
$var wire 1 * rd $end
$var wire 1 + rst_n $end
$var reg 16 . counter [15:0] $end
$var reg 2 / curr_state [1:0] $end
$var reg 8 0 data_out [7:0] $end
$var reg 1 ! done $end
$var reg 1 1 last_direction $end
$var reg 16 2 limit_reg [15:0] $end
$var reg 16 3 step_count [15:0] $end
$var integer 32 4 i [31:0] $end
$scope function detect_direction $end
$var reg 2 5 s0 [1:0] $end
$var reg 2 6 s1 [1:0] $end
$var reg 2 7 s2 [1:0] $end
$var reg 2 8 s3 [1:0] $end
$upscope $end
$scope function is_full_rotation $end
$var reg 2 9 s0 [1:0] $end
$var reg 2 : s1 [1:0] $end
$var reg 2 ; s2 [1:0] $end
$var reg 2 < s3 [1:0] $end
$upscope $end
$upscope $end
$scope task read_reg $end
$var reg 16 = address [15:0] $end
$upscope $end
$scope task simulate_rotation $end
$var integer 32 > dir [31:0] $end
$upscope $end
$upscope $end
$enddefinitions $end
$comment Show the parameter values. $end
$dumpall
$end
#0
$dumpvars
bx >
bx =
bx <
bx ;
bx :
bx 9
bx 8
bx 7
bx 6
bx 5
b100 4
b0 3
b0 2
11
b0 0
b0 /
b0 .
b1 -
b0 ,
0+
0*
1)
b1 (
0'
0&
b0 %
0$
0#
b0 "
0!
$end
#5000
b100 4
1&
#10000
0&
#15000
b100 4
1&
#20000
0&
#25000
b100 4
1&
#30000
0&
#35000
b100 4
1&
#40000
0&
#45000
b100 4
1&
#50000
0&
#55000
b100 4
1&
#60000
0&
#65000
b100 4
1&
#70000
0&
#75000
b100 4
1&
#80000
0&
#85000
b100 4
1&
#90000
0&
#95000
b100 4
1&
#100000
0&
#105000
b100 4
1&
#110000
0&
#115000
b100 4
1&
#120000
0&
#125000
b100 4
1&
#130000
0&
#135000
b100 4
1&
#140000
0&
#145000
b100 4
1&
#150000
0&
#155000
b100 4
1&
#160000
0&
#165000
b100 4
1&
#170000
0&
#175000
b100 4
1&
#180000
0&
#185000
b100 4
1&
#190000
0&
#195000
b100 4
1&
#200000
0&
#205000
b100 4
1&
#210000
0&
#215000
b100 4
1&
#220000
0&
#225000
b100 4
1&
#230000
0&
#235000
b100 4
1&
#240000
0&
#245000
b100 4
1&
#250000
0&
#255000
b100 4
1&
#260000
0&
#265000
b100 4
1&
#270000
0&
#275000
b100 4
1&
#280000
0&
#285000
b100 4
1&
#290000
0&
#295000
b100 4
1&
#300000
0&
#305000
b100 4
1&
#310000
0&
#315000
b100 4
1&
#320000
0&
#325000
b100 4
1&
#330000
0&
#335000
b100 4
1&
#340000
0&
#345000
b100 4
1&
#350000
0&
#355000
b100 4
1&
#360000
0&
#365000
b100 4
1&
#370000
0&
#375000
b100 4
1&
#380000
0&
#385000
b100 4
1&
#390000
0&
#395000
b100 4
1&
#400000
0&
#405000
b100 4
1&
#410000
0&
#415000
b100 4
1&
#420000
0&
#425000
b100 4
1&
#430000
0&
#435000
b100 4
1&
#440000
0&
#445000
b100 4
1&
#450000
0&
#455000
b100 4
1&
#460000
0&
#465000
b100 4
1&
#470000
0&
#475000
b100 4
1&
#480000
0&
#485000
b100 4
1&
#490000
0&
#495000
b100 4
1&
#500000
0&
b1 >
1+
#505000
bz "
bz 0
b1 2
1&
#510000
0&
#515000
1&
#520000
0&
#525000
1&
#530000
0&
#535000
1&
#540000
0&
1$
#545000
b1 3
b1 /
b0 9
b0 :
b0 ;
b0 <
1&
#550000
0&
#555000
1!
b10 3
1&
#560000
0&
#565000
1&
#570000
0&
#575000
1&
#580000
0&
1#
#585000
b11 3
b11 /
1&
#590000
0&
#595000
b100 3
1&
#600000
0&
#605000
1&
#610000
0&
#615000
1&
#620000
0&
0$
#625000
b101 3
b10 /
1&
#630000
0&
#635000
b110 3
1&
#640000
0&
#645000
1&
#650000
0&
#655000
1&
#660000
0&
0#
#665000
b111 3
b0 /
1&
#670000
0&
#675000
b1000 3
b10 9
b10 :
b10 ;
b10 <
1&
#680000
0&
#685000
1&
#690000
0&
#695000
1&
#700000
0&
1*
1'
b101 %
b101 ,
b101 =
#705000
b0 "
b0 0
1&
#710000
0&
#715000
1&
#720000
0&
0*
0'
#725000
bz "
bz 0
1&
#730000
0&
#735000
1&
#740000
0&
1*
1'
b110 %
b110 ,
b110 =
#745000
b0 "
b0 0
1&
#750000
0&
#755000
1&
#760000
0&
0*
0'
#765000
bz "
bz 0
1&
#770000
0&
#775000
1&
#780000
0&
#785000
1&
#790000
0&
#795000
1&
#800000
0&
#805000
1&
#810000
0&
#815000
1&
#820000
0&
1$
#825000
b1001 3
b1 /
b0 9
b0 :
b0 ;
b0 <
1&
#830000
0&
#835000
b1010 3
1&
#840000
0&
#845000
1&
#850000
0&
#855000
1&
#860000
0&
1#
#865000
b1011 3
b11 /
1&
#870000
0&
#875000
b1100 3
1&
#880000
0&
#885000
1&
#890000
0&
#895000
1&
#900000
0&
0$
#905000
b1101 3
b10 /
1&
#910000
0&
#915000
b1110 3
1&
#920000
0&
#925000
1&
#930000
0&
#935000
1&
#940000
0&
0#
#945000
b1111 3
b0 /
1&
#950000
0&
#955000
b10000 3
b10 9
b10 :
b10 ;
b10 <
1&
#960000
0&
#965000
1&
#970000
0&
#975000
1&
#980000
0&
1*
1'
b101 %
b101 ,
b101 =
#985000
b0 "
b0 0
1&
#990000
0&
#995000
1&
#1000000
0&
0*
0'
#1005000
bz "
bz 0
1&
#1010000
0&
#1015000
1&
#1020000
0&
1*
1'
b110 %
b110 ,
b110 =
#1025000
b0 "
b0 0
1&
#1030000
0&
#1035000
1&
#1040000
0&
0*
0'
#1045000
bz "
bz 0
1&
#1050000
0&
#1055000
1&
#1060000
0&
b0 >
#1065000
1&
#1070000
0&
#1075000
1&
#1080000
0&
#1085000
1&
#1090000
0&
#1095000
1&
#1100000
0&
1#
#1105000
b10001 3
b10 /
b0 9
b0 :
b0 ;
b0 <
1&
#1110000
0&
#1115000
b10010 3
1&
#1120000
0&
#1125000
1&
#1130000
0&
#1135000
1&
#1140000
0&
1$
#1145000
b10011 3
b11 /
1&
#1150000
0&
#1155000
b10100 3
1&
#1160000
0&
#1165000
1&
#1170000
0&
#1175000
1&
#1180000
0&
0#
#1185000
b10101 3
b1 /
1&
#1190000
0&
#1195000
b10110 3
1&
#1200000
0&
#1205000
1&
#1210000
0&
#1215000
1&
#1220000
0&
0$
#1225000
b10111 3
b0 /
1&
#1230000
0&
#1235000
b11000 3
b1 9
b1 :
b1 ;
b1 <
1&
#1240000
0&
#1245000
1&
#1250000
0&
#1255000
1&
#1260000
0&
1*
1'
b101 %
b101 ,
b101 =
#1265000
b0 "
b0 0
1&
#1270000
0&
#1275000
1&
#1280000
0&
0*
0'
#1285000
bz "
bz 0
1&
#1290000
0&
#1295000
1&
#1300000
0&
1*
1'
b110 %
b110 ,
b110 =
#1305000
b0 "
b0 0
1&
#1310000
0&
#1315000
1&
#1320000
0&
0*
0'
#1325000
bz "
bz 0
1&
#1330000
0&
#1335000
1&
#1340000
0&
#1345000
1&
#1350000
0&
#1355000
1&
#1360000
0&
#1365000
1&
#1370000
0&
#1375000
1&
#1380000
0&
1#
#1385000
b11001 3
b10 /
b0 9
b0 :
b0 ;
b0 <
1&
#1390000
0&
#1395000
b11010 3
1&
#1400000
0&
#1405000
1&
#1410000
0&
#1415000
1&
#1420000
0&
1$
#1425000
b11011 3
b11 /
1&
#1430000
0&
#1435000
b11100 3
1&
#1440000
0&
#1445000
1&
#1450000
0&
#1455000
1&
#1460000
0&
0#
#1465000
b11101 3
b1 /
1&
#1470000
0&
#1475000
b11110 3
1&
#1480000
0&
#1485000
1&
#1490000
0&
#1495000
1&
#1500000
0&
0$
#1505000
b11111 3
b0 /
1&
#1510000
0&
#1515000
b100000 3
b1 9
b1 :
b1 ;
b1 <
1&
#1520000
0&
#1525000
1&
#1530000
0&
#1535000
1&
#1540000
0&
1*
1'
b101 %
b101 ,
b101 =
#1545000
b0 "
b0 0
1&
#1550000
0&
#1555000
1&
#1560000
0&
0*
0'
#1565000
bz "
bz 0
1&
#1570000
0&
#1575000
1&
#1580000
0&
1*
1'
b110 %
b110 ,
b110 =
#1585000
b0 "
b0 0
1&
#1590000
0&
#1595000
1&
#1600000
0&
0*
0'
#1605000
bz "
bz 0
1&
#1610000
0&
#1615000
1&
#1620000
0&
b1 >
#1625000
1&
#1630000
0&
#1635000
1&
#1640000
0&
#1645000
1&
#1650000
0&
#1655000
1&
#1660000
0&
1$
#1665000
b100001 3
b1 /
b0 9
b0 :
b0 ;
b0 <
1&
#1670000
0&
#1675000
b100010 3
1&
#1680000
0&
#1685000
1&
#1690000
0&
#1695000
1&
#1700000
0&
1#
#1705000
b100011 3
b11 /
1&
#1710000
0&
#1715000
b100100 3
1&
#1720000
0&
#1725000
1&
#1730000
0&
#1735000
1&
#1740000
0&
0$
#1745000
b100101 3
b10 /
1&
#1750000
0&
#1755000
b100110 3
1&
#1760000
0&
#1765000
1&
#1770000
0&
#1775000
1&
#1780000
0&
0#
#1785000
b100111 3
b0 /
1&
#1790000
0&
#1795000
b101000 3
b10 9
b10 :
b10 ;
b10 <
1&
#1800000
0&
#1805000
1&
#1810000
0&
#1815000
1&
#1820000
0&
1*
1'
b101 %
b101 ,
b101 =
#1825000
b0 "
b0 0
1&
#1830000
0&
#1835000
1&
#1840000
0&
0*
0'
#1845000
bz "
bz 0
1&
#1850000
0&
#1855000
1&
#1860000
0&
1*
1'
b110 %
b110 ,
b110 =
#1865000
b0 "
b0 0
1&
#1870000
0&
#1875000
1&
#1880000
0&
0*
0'
#1885000
bz "
bz 0
1&
